…
# **Problem 1: NY NOAA Data Exploration**

## *Description of the Dataset Before Any Data Cleaning*

*The `ny_noaa` dataset contains 2595176 observations and 7 variables.
Key variables include `tmax` (maximum temperature), `tmin` (minimum
temperature), `prcp` (precipitation), and `snow` (snowfall). Temperature
is measured in tenths of degrees Celsius, while precipitation and
snowfall are measured in tenths of millimeters. There are 1134358
missing values for `tmax` and 1134420 missing values for `tmin`,
indicating the presence of missing data in this dataset.*

    ## # A tibble: 977,827 × 7
    ##    id          date        prcp  snow  snwd tmax  tmin 
    ##    <chr>       <date>     <int> <int> <int> <chr> <chr>
    ##  1 US1NYAB0001 2007-11-17     3     3     0 <NA>  <NA> 
    ##  2 US1NYAB0001 2007-11-20    25     0     0 <NA>  <NA> 
    ##  3 US1NYAB0001 2007-11-21    71     0     0 <NA>  <NA> 
    ##  4 US1NYAB0001 2007-11-22     8     0    NA <NA>  <NA> 
    ##  5 US1NYAB0001 2007-11-23     8     0    NA <NA>  <NA> 
    ##  6 US1NYAB0001 2007-11-24     3     3     0 <NA>  <NA> 
    ##  7 US1NYAB0001 2007-11-26     8     5    NA <NA>  <NA> 
    ##  8 US1NYAB0001 2007-11-27   150     0     0 <NA>  <NA> 
    ##  9 US1NYAB0001 2007-11-28     8     5     0 <NA>  <NA> 
    ## 10 US1NYAB0001 2007-12-01    46    64    64 <NA>  <NA> 
    ## # ℹ 977,817 more rows
…
